{
    "count": 716,
    "next": "http://127.0.0.1:8000/api/v2/location-area/?limit=20&offset=20",
    "previous": null,
    "results": [
        {
            "name": "canalave-city-area",
            "url": "http://127.0.0.1:8000/api/v2/location-area/1/"
        },
        {
            "name": "eterna-city-area",
            "url": "http://127.0.0.1:8000/api/v2/location-area/2/"
        },
        {
            "name": "pastoria-city-area",
            "url": "http://127.0.0.1:8000/api/v2/location-area/3/"
        },
        {
            "name": "sunyshore-city-area",
            "url": "http://127.0.0.1:8000/api/v2/location-area/4/"
        },
        {
            "name": "sinnoh-pokemon-league-area",
            "url": "http://127.0.0.1:8000/api/v2/location-area/5/"
        },
        {
            "name": "oreburgh-mine-1f",
            "url": "http://127.0.0.1:8000/api/v2/location-area/6/"
        },
        {
            "name": "oreburgh-mine-b1f",
            "url": "http://127.0.0.1:8000/api/v2/location-area/7/"
        },
        {
            "name": "valley-windworks-area",
            "url": "http://127.0.0.1:8000/api/v2/location-area/8/"
        },
        {
            "name": "eterna-forest-area",
            "url": "http://127.0.0.1:8000/api/v2/location-area/9/"
        },
        {
            "name": "fuego-ironworks-area",
            "url": "http://127.0.0.1:8000/api/v2/location-area/10/"
        },
        {
            "name": "mt-coronet-route-207",
            "url": "http://127.0.0.1:8000/api/v2/location-area/11/"
        },
        {
            "name": "mt-coronet-2f",
            "url": "http://127.0.0.1:8000/api/v2/location-area/12/"
        },
        {
            "name": "mt-coronet-3f",
            "url": "http://127.0.0.1:8000/api/v2/location-area/13/"
        },
        {
            "name": "mt-coronet-snowfall",
            "url": "http://127.0.0.1:8000/api/v2/location-area/14/"
        },
        {
            "name": "mt-coronet-blizzard",
            "url": "http://127.0.0.1:8000/api/v2/location-area/15/"
        },
        {
            "name": "mt-coronet-4f",
            "url": "http://127.0.0.1:8000/api/v2/location-area/16/"
        },
        {
            "name": "mt-coronet-5f",
            "url": "http://127.0.0.1:8000/api/v2/location-area/17/"
        },
        {
            "name": "mt-coronet-6f",
            "url": "http://127.0.0.1:8000/api/v2/location-area/18/"
        },
        {
            "name": "mt-coronet-7f",
            "url": "http://127.0.0.1:8000/api/v2/location-area/19/"
        },
        {
            "name": "mt-coronet-cave",
            "url": "http://127.0.0.1:8000/api/v2/location-area/20/"
        }
    ]
}
