{
    "count": 716,
    "next": "http://127.0.0.1:8000/api/v2/location-area/?limit=50&offset=50",
    "previous": null,
    "results": [
        {
            "name": "canalave-city-area",
            "url": "http://127.0.0.1:8000/api/v2/location-area/1/"
        },
        {
            "name": "eterna-city-area",
            "url": "http://127.0.0.1:8000/api/v2/location-area/2/"
        },
        {
            "name": "pastoria-city-area",
            "url": "http://127.0.0.1:8000/api/v2/location-area/3/"
        },
        {
            "name": "sunyshore-city-area",
            "url": "http://127.0.0.1:8000/api/v2/location-area/4/"
        },
        {
            "name": "sinnoh-pokemon-league-area",
            "url": "http://127.0.0.1:8000/api/v2/location-area/5/"
        },
        {
            "name": "oreburgh-mine-1f",
            "url": "http://127.0.0.1:8000/api/v2/location-area/6/"
        },
        {
            "name": "oreburgh-mine-b1f",
            "url": "http://127.0.0.1:8000/api/v2/location-area/7/"
        },
        {
            "name": "valley-windworks-area",
            "url": "http://127.0.0.1:8000/api/v2/location-area/8/"
        },
        {
            "name": "eterna-forest-area",
            "url": "http://127.0.0.1:8000/api/v2/location-area/9/"
        },
        {
            "name": "fuego-ironworks-area",
            "url": "http://127.0.0.1:8000/api/v2/location-area/10/"
        },
        {
            "name": "mt-coronet-route-207",
            "url": "http://127.0.0.1:8000/api/v2/location-area/11/"
        },
        {
            "name": "mt-coronet-2f",
            "url": "http://127.0.0.1:8000/api/v2/location-area/12/"
        },
        {
            "name": "mt-coronet-3f",
            "url": "http://127.0.0.1:8000/api/v2/location-area/13/"
        },
        {
            "name": "mt-coronet-snowfall",
            "url": "http://127.0.0.1:8000/api/v2/location-area/14/"
        },
        {
            "name": "mt-coronet-blizzard",
            "url": "http://127.0.0.1:8000/api/v2/location-area/15/"
        },
        {
            "name": "mt-coronet-4f",
            "url": "http://127.0.0.1:8000/api/v2/location-area/16/"
        },
        {
            "name": "mt-coronet-5f",
            "url": "http://127.0.0.1:8000/api/v2/location-area/17/"
        },
        {
            "name": "mt-coronet-6f",
            "url": "http://127.0.0.1:8000/api/v2/location-area/18/"
        },
        {
            "name": "mt-coronet-7f",
            "url": "http://127.0.0.1:8000/api/v2/location-area/19/"
        },
        {
            "name": "mt-coronet-cave",
            "url": "http://127.0.0.1:8000/api/v2/location-area/20/"
        },
        {
            "name": "mt-coronet-route-216",
            "url": "http://127.0.0.1:8000/api/v2/location-area/21/"
        },
        {
            "name": "mt-coronet-route-211",
            "url": "http://127.0.0.1:8000/api/v2/location-area/22/"
        },
        {
            "name": "mt-coronet-b1f",
            "url": "http://127.0.0.1:8000/api/v2/location-area/23/"
        },
        {
            "name": "great-marsh-area-1",
            "url": "http://127.0.0.1:8000/api/v2/location-area/24/"
        },
        {
            "name": "great-marsh-area-2",
            "url": "http://127.0.0.1:8000/api/v2/location-area/25/"
        },
        {
            "name": "great-marsh-area-3",
            "url": "http://127.0.0.1:8000/api/v2/location-area/26/"
        },
        {
            "name": "great-marsh-area-4",
            "url": "http://127.0.0.1:8000/api/v2/location-area/27/"
        },
        {
            "name": "great-marsh-area-5",
            "url": "http://127.0.0.1:8000/api/v2/location-area/28/"
        },
        {
            "name": "great-marsh-area-6",
            "url": "http://127.0.0.1:8000/api/v2/location-area/29/"
        },
        {
            "name": "solaceon-ruins-2f",
            "url": "http://127.0.0.1:8000/api/v2/location-area/30/"
        },
        {
            "name": "solaceon-ruins-1f",
            "url": "http://127.0.0.1:8000/api/v2/location-area/31/"
        },
        {
            "name": "solaceon-ruins-b1f-a",
            "url": "http://127.0.0.1:8000/api/v2/location-area/32/"
        },
        {
            "name": "solaceon-ruins-b1f-b",
            "url": "http://127.0.0.1:8000/api/v2/location-area/33/"
        },
        {
            "name": "solaceon-ruins-b1f-c",
            "url": "http://127.0.0.1:8000/api/v2/location-area/34/"
        },
        {
            "name": "solaceon-ruins-b2f-a",
            "url": "http://127.0.0.1:8000/api/v2/location-area/35/"
        },
        {
            "name": "solaceon-ruins-b2f-b",
            "url": "http://127.0.0.1:8000/api/v2/location-area/36/"
        },
        {
            "name": "solaceon-ruins-b2f-c",
            "url": "http://127.0.0.1:8000/api/v2/location-area/37/"
        },
        {
            "name": "solaceon-ruins-b3f-a",
            "url": "http://127.0.0.1:8000/api/v2/location-area/38/"
        },
        {
            "name": "solaceon-ruins-b3f-b",
            "url": "http://127.0.0.1:8000/api/v2/location-area/39/"
        },
        {
            "name": "solaceon-ruins-b3f-c",
            "url": "http://127.0.0.1:8000/api/v2/location-area/40/"
        },
        {
            "name": "solaceon-ruins-b3f-d",
            "url": "http://127.0.0.1:8000/api/v2/location-area/41/"
        },
        {
            "name": "solaceon-ruins-b3f-e",
            "url": "http://127.0.0.1:8000/api/v2/location-area/42/"
        },
        {
            "name": "solaceon-ruins-b4f-a",
            "url": "http://127.0.0.1:8000/api/v2/location-area/43/"
        },
        {
            "name": "solaceon-ruins-b4f-b",
            "url": "http://127.0.0.1:8000/api/v2/location-area/44/"
        },
        {
            "name": "solaceon-ruins-b4f-c",
            "url": "http://127.0.0.1:8000/api/v2/location-area/45/"
        },
        {
            "name": "solaceon-ruins-b4f-d",
            "url": "http://127.0.0.1:8000/api/v2/location-area/46/"
        },
        {
            "name": "solaceon-ruins-b5f",
            "url": "http://127.0.0.1:8000/api/v2/location-area/47/"
        },
        {
            "name": "sinnoh-victory-road-1f",
            "url": "http://127.0.0.1:8000/api/v2/location-area/48/"
        },
        {
            "name": "sinnoh-victory-road-2f",
            "url": "http://127.0.0.1:8000/api/v2/location-area/49/"
        },
        {
            "name": "sinnoh-victory-road-b1f",
            "url": "http://127.0.0.1:8000/api/v2/location-area/50/"
        }
    ]
}
