{
    "count": 1228,
    "next": "http://127.0.0.1:8000/api/v2/machine/?limit=20&offset=20",
    "previous": null,
    "results": [
        {
            "url": "http://127.0.0.1:8000/api/v2/machine/1/"
        },
        {
            "url": "http://127.0.0.1:8000/api/v2/machine/2/"
        },
        {
            "url": "http://127.0.0.1:8000/api/v2/machine/3/"
        },
        {
            "url": "http://127.0.0.1:8000/api/v2/machine/4/"
        },
        {
            "url": "http://127.0.0.1:8000/api/v2/machine/5/"
        },
        {
            "url": "http://127.0.0.1:8000/api/v2/machine/6/"
        },
        {
            "url": "http://127.0.0.1:8000/api/v2/machine/7/"
        },
        {
            "url": "http://127.0.0.1:8000/api/v2/machine/8/"
        },
        {
            "url": "http://127.0.0.1:8000/api/v2/machine/9/"
        },
        {
            "url": "http://127.0.0.1:8000/api/v2/machine/10/"
        },
        {
            "url": "http://127.0.0.1:8000/api/v2/machine/11/"
        },
        {
            "url": "http://127.0.0.1:8000/api/v2/machine/12/"
        },
        {
            "url": "http://127.0.0.1:8000/api/v2/machine/13/"
        },
        {
            "url": "http://127.0.0.1:8000/api/v2/machine/14/"
        },
        {
            "url": "http://127.0.0.1:8000/api/v2/machine/15/"
        },
        {
            "url": "http://127.0.0.1:8000/api/v2/machine/16/"
        },
        {
            "url": "http://127.0.0.1:8000/api/v2/machine/17/"
        },
        {
            "url": "http://127.0.0.1:8000/api/v2/machine/18/"
        },
        {
            "url": "http://127.0.0.1:8000/api/v2/machine/19/"
        },
        {
            "url": "http://127.0.0.1:8000/api/v2/machine/20/"
        }
    ]
}
