{
    "count": 1228,
    "next": "http://127.0.0.1:8000/api/v2/machine/?limit=50&offset=50",
    "previous": null,
    "results": [
        {
            "url": "http://127.0.0.1:8000/api/v2/machine/1/"
        },
        {
            "url": "http://127.0.0.1:8000/api/v2/machine/2/"
        },
        {
            "url": "http://127.0.0.1:8000/api/v2/machine/3/"
        },
        {
            "url": "http://127.0.0.1:8000/api/v2/machine/4/"
        },
        {
            "url": "http://127.0.0.1:8000/api/v2/machine/5/"
        },
        {
            "url": "http://127.0.0.1:8000/api/v2/machine/6/"
        },
        {
            "url": "http://127.0.0.1:8000/api/v2/machine/7/"
        },
        {
            "url": "http://127.0.0.1:8000/api/v2/machine/8/"
        },
        {
            "url": "http://127.0.0.1:8000/api/v2/machine/9/"
        },
        {
            "url": "http://127.0.0.1:8000/api/v2/machine/10/"
        },
        {
            "url": "http://127.0.0.1:8000/api/v2/machine/11/"
        },
        {
            "url": "http://127.0.0.1:8000/api/v2/machine/12/"
        },
        {
            "url": "http://127.0.0.1:8000/api/v2/machine/13/"
        },
        {
            "url": "http://127.0.0.1:8000/api/v2/machine/14/"
        },
        {
            "url": "http://127.0.0.1:8000/api/v2/machine/15/"
        },
        {
            "url": "http://127.0.0.1:8000/api/v2/machine/16/"
        },
        {
            "url": "http://127.0.0.1:8000/api/v2/machine/17/"
        },
        {
            "url": "http://127.0.0.1:8000/api/v2/machine/18/"
        },
        {
            "url": "http://127.0.0.1:8000/api/v2/machine/19/"
        },
        {
            "url": "http://127.0.0.1:8000/api/v2/machine/20/"
        },
        {
            "url": "http://127.0.0.1:8000/api/v2/machine/21/"
        },
        {
            "url": "http://127.0.0.1:8000/api/v2/machine/22/"
        },
        {
            "url": "http://127.0.0.1:8000/api/v2/machine/23/"
        },
        {
            "url": "http://127.0.0.1:8000/api/v2/machine/24/"
        },
        {
            "url": "http://127.0.0.1:8000/api/v2/machine/25/"
        },
        {
            "url": "http://127.0.0.1:8000/api/v2/machine/26/"
        },
        {
            "url": "http://127.0.0.1:8000/api/v2/machine/27/"
        },
        {
            "url": "http://127.0.0.1:8000/api/v2/machine/28/"
        },
        {
            "url": "http://127.0.0.1:8000/api/v2/machine/29/"
        },
        {
            "url": "http://127.0.0.1:8000/api/v2/machine/30/"
        },
        {
            "url": "http://127.0.0.1:8000/api/v2/machine/31/"
        },
        {
            "url": "http://127.0.0.1:8000/api/v2/machine/32/"
        },
        {
            "url": "http://127.0.0.1:8000/api/v2/machine/33/"
        },
        {
            "url": "http://127.0.0.1:8000/api/v2/machine/34/"
        },
        {
            "url": "http://127.0.0.1:8000/api/v2/machine/35/"
        },
        {
            "url": "http://127.0.0.1:8000/api/v2/machine/36/"
        },
        {
            "url": "http://127.0.0.1:8000/api/v2/machine/37/"
        },
        {
            "url": "http://127.0.0.1:8000/api/v2/machine/38/"
        },
        {
            "url": "http://127.0.0.1:8000/api/v2/machine/39/"
        },
        {
            "url": "http://127.0.0.1:8000/api/v2/machine/40/"
        },
        {
            "url": "http://127.0.0.1:8000/api/v2/machine/41/"
        },
        {
            "url": "http://127.0.0.1:8000/api/v2/machine/42/"
        },
        {
            "url": "http://127.0.0.1:8000/api/v2/machine/43/"
        },
        {
            "url": "http://127.0.0.1:8000/api/v2/machine/44/"
        },
        {
            "url": "http://127.0.0.1:8000/api/v2/machine/45/"
        },
        {
            "url": "http://127.0.0.1:8000/api/v2/machine/46/"
        },
        {
            "url": "http://127.0.0.1:8000/api/v2/machine/47/"
        },
        {
            "url": "http://127.0.0.1:8000/api/v2/machine/48/"
        },
        {
            "url": "http://127.0.0.1:8000/api/v2/machine/49/"
        },
        {
            "url": "http://127.0.0.1:8000/api/v2/machine/50/"
        }
    ]
}
