{
    "count": 44,
    "next": "http://127.0.0.1:8000/api/v2/item-category/?limit=20&offset=20",
    "previous": null,
    "results": [
        {
            "name": "stat-boosts",
            "url": "http://127.0.0.1:8000/api/v2/item-category/1/"
        },
        {
            "name": "effort-drop",
            "url": "http://127.0.0.1:8000/api/v2/item-category/2/"
        },
        {
            "name": "medicine",
            "url": "http://127.0.0.1:8000/api/v2/item-category/3/"
        },
        {
            "name": "other",
            "url": "http://127.0.0.1:8000/api/v2/item-category/4/"
        },
        {
            "name": "in-a-pinch",
            "url": "http://127.0.0.1:8000/api/v2/item-category/5/"
        },
        {
            "name": "picky-healing",
            "url": "http://127.0.0.1:8000/api/v2/item-category/6/"
        },
        {
            "name": "type-protection",
            "url": "http://127.0.0.1:8000/api/v2/item-category/7/"
        },
        {
            "name": "baking-only",
            "url": "http://127.0.0.1:8000/api/v2/item-category/8/"
        },
        {
            "name": "collectibles",
            "url": "http://127.0.0.1:8000/api/v2/item-category/9/"
        },
        {
            "name": "evolution",
            "url": "http://127.0.0.1:8000/api/v2/item-category/10/"
        },
        {
            "name": "spelunking",
            "url": "http://127.0.0.1:8000/api/v2/item-category/11/"
        },
        {
            "name": "held-items",
            "url": "http://127.0.0.1:8000/api/v2/item-category/12/"
        },
        {
            "name": "choice",
            "url": "http://127.0.0.1:8000/api/v2/item-category/13/"
        },
        {
            "name": "effort-training",
            "url": "http://127.0.0.1:8000/api/v2/item-category/14/"
        },
        {
            "name": "bad-held-items",
            "url": "http://127.0.0.1:8000/api/v2/item-category/15/"
        },
        {
            "name": "training",
            "url": "http://127.0.0.1:8000/api/v2/item-category/16/"
        },
        {
            "name": "plates",
            "url": "http://127.0.0.1:8000/api/v2/item-category/17/"
        },
        {
            "name": "species-specific",
            "url": "http://127.0.0.1:8000/api/v2/item-category/18/"
        },
        {
            "name": "type-enhancement",
            "url": "http://127.0.0.1:8000/api/v2/item-category/19/"
        },
        {
            "name": "event-items",
            "url": "http://127.0.0.1:8000/api/v2/item-category/20/"
        }
    ]
}
