{
    "count": 30,
    "next": "http://127.0.0.1:8000/api/v2/characteristic/?limit=20&offset=20",
    "previous": null,
    "results": [
        {
            "url": "http://127.0.0.1:8000/api/v2/characteristic/1/"
        },
        {
            "url": "http://127.0.0.1:8000/api/v2/characteristic/2/"
        },
        {
            "url": "http://127.0.0.1:8000/api/v2/characteristic/3/"
        },
        {
            "url": "http://127.0.0.1:8000/api/v2/characteristic/4/"
        },
        {
            "url": "http://127.0.0.1:8000/api/v2/characteristic/5/"
        },
        {
            "url": "http://127.0.0.1:8000/api/v2/characteristic/6/"
        },
        {
            "url": "http://127.0.0.1:8000/api/v2/characteristic/7/"
        },
        {
            "url": "http://127.0.0.1:8000/api/v2/characteristic/8/"
        },
        {
            "url": "http://127.0.0.1:8000/api/v2/characteristic/9/"
        },
        {
            "url": "http://127.0.0.1:8000/api/v2/characteristic/10/"
        },
        {
            "url": "http://127.0.0.1:8000/api/v2/characteristic/11/"
        },
        {
            "url": "http://127.0.0.1:8000/api/v2/characteristic/12/"
        },
        {
            "url": "http://127.0.0.1:8000/api/v2/characteristic/13/"
        },
        {
            "url": "http://127.0.0.1:8000/api/v2/characteristic/14/"
        },
        {
            "url": "http://127.0.0.1:8000/api/v2/characteristic/15/"
        },
        {
            "url": "http://127.0.0.1:8000/api/v2/characteristic/16/"
        },
        {
            "url": "http://127.0.0.1:8000/api/v2/characteristic/17/"
        },
        {
            "url": "http://127.0.0.1:8000/api/v2/characteristic/18/"
        },
        {
            "url": "http://127.0.0.1:8000/api/v2/characteristic/19/"
        },
        {
            "url": "http://127.0.0.1:8000/api/v2/characteristic/20/"
        }
    ]
}
