{
    "count": 678,
    "next": "http://127.0.0.1:8000/api/v2/location/?limit=20&offset=20",
    "previous": null,
    "results": [
        {
            "name": "canalave-city",
            "url": "http://127.0.0.1:8000/api/v2/location/1/"
        },
        {
            "name": "eterna-city",
            "url": "http://127.0.0.1:8000/api/v2/location/2/"
        },
        {
            "name": "pastoria-city",
            "url": "http://127.0.0.1:8000/api/v2/location/3/"
        },
        {
            "name": "sunyshore-city",
            "url": "http://127.0.0.1:8000/api/v2/location/4/"
        },
        {
            "name": "sinnoh-pokemon-league",
            "url": "http://127.0.0.1:8000/api/v2/location/5/"
        },
        {
            "name": "oreburgh-mine",
            "url": "http://127.0.0.1:8000/api/v2/location/6/"
        },
        {
            "name": "valley-windworks",
            "url": "http://127.0.0.1:8000/api/v2/location/7/"
        },
        {
            "name": "eterna-forest",
            "url": "http://127.0.0.1:8000/api/v2/location/8/"
        },
        {
            "name": "fuego-ironworks",
            "url": "http://127.0.0.1:8000/api/v2/location/9/"
        },
        {
            "name": "mt-coronet",
            "url": "http://127.0.0.1:8000/api/v2/location/10/"
        },
        {
            "name": "great-marsh",
            "url": "http://127.0.0.1:8000/api/v2/location/11/"
        },
        {
            "name": "solaceon-ruins",
            "url": "http://127.0.0.1:8000/api/v2/location/12/"
        },
        {
            "name": "sinnoh-victory-road",
            "url": "http://127.0.0.1:8000/api/v2/location/13/"
        },
        {
            "name": "ravaged-path",
            "url": "http://127.0.0.1:8000/api/v2/location/14/"
        },
        {
            "name": "oreburgh-gate",
            "url": "http://127.0.0.1:8000/api/v2/location/15/"
        },
        {
            "name": "stark-mountain",
            "url": "http://127.0.0.1:8000/api/v2/location/16/"
        },
        {
            "name": "spring-path",
            "url": "http://127.0.0.1:8000/api/v2/location/17/"
        },
        {
            "name": "turnback-cave",
            "url": "http://127.0.0.1:8000/api/v2/location/18/"
        },
        {
            "name": "snowpoint-temple",
            "url": "http://127.0.0.1:8000/api/v2/location/19/"
        },
        {
            "name": "wayward-cave",
            "url": "http://127.0.0.1:8000/api/v2/location/20/"
        }
    ]
}
