{
    "count": 678,
    "next": "http://127.0.0.1:8000/api/v2/location/?limit=50&offset=50",
    "previous": null,
    "results": [
        {
            "name": "canalave-city",
            "url": "http://127.0.0.1:8000/api/v2/location/1/"
        },
        {
            "name": "eterna-city",
            "url": "http://127.0.0.1:8000/api/v2/location/2/"
        },
        {
            "name": "pastoria-city",
            "url": "http://127.0.0.1:8000/api/v2/location/3/"
        },
        {
            "name": "sunyshore-city",
            "url": "http://127.0.0.1:8000/api/v2/location/4/"
        },
        {
            "name": "sinnoh-pokemon-league",
            "url": "http://127.0.0.1:8000/api/v2/location/5/"
        },
        {
            "name": "oreburgh-mine",
            "url": "http://127.0.0.1:8000/api/v2/location/6/"
        },
        {
            "name": "valley-windworks",
            "url": "http://127.0.0.1:8000/api/v2/location/7/"
        },
        {
            "name": "eterna-forest",
            "url": "http://127.0.0.1:8000/api/v2/location/8/"
        },
        {
            "name": "fuego-ironworks",
            "url": "http://127.0.0.1:8000/api/v2/location/9/"
        },
        {
            "name": "mt-coronet",
            "url": "http://127.0.0.1:8000/api/v2/location/10/"
        },
        {
            "name": "great-marsh",
            "url": "http://127.0.0.1:8000/api/v2/location/11/"
        },
        {
            "name": "solaceon-ruins",
            "url": "http://127.0.0.1:8000/api/v2/location/12/"
        },
        {
            "name": "sinnoh-victory-road",
            "url": "http://127.0.0.1:8000/api/v2/location/13/"
        },
        {
            "name": "ravaged-path",
            "url": "http://127.0.0.1:8000/api/v2/location/14/"
        },
        {
            "name": "oreburgh-gate",
            "url": "http://127.0.0.1:8000/api/v2/location/15/"
        },
        {
            "name": "stark-mountain",
            "url": "http://127.0.0.1:8000/api/v2/location/16/"
        },
        {
            "name": "spring-path",
            "url": "http://127.0.0.1:8000/api/v2/location/17/"
        },
        {
            "name": "turnback-cave",
            "url": "http://127.0.0.1:8000/api/v2/location/18/"
        },
        {
            "name": "snowpoint-temple",
            "url": "http://127.0.0.1:8000/api/v2/location/19/"
        },
        {
            "name": "wayward-cave",
            "url": "http://127.0.0.1:8000/api/v2/location/20/"
        },
        {
            "name": "ruin-maniac-cave",
            "url": "http://127.0.0.1:8000/api/v2/location/22/"
        },
        {
            "name": "trophy-garden",
            "url": "http://127.0.0.1:8000/api/v2/location/23/"
        },
        {
            "name": "iron-island",
            "url": "http://127.0.0.1:8000/api/v2/location/24/"
        },
        {
            "name": "old-chateau",
            "url": "http://127.0.0.1:8000/api/v2/location/25/"
        },
        {
            "name": "lake-verity",
            "url": "http://127.0.0.1:8000/api/v2/location/26/"
        },
        {
            "name": "lake-valor",
            "url": "http://127.0.0.1:8000/api/v2/location/27/"
        },
        {
            "name": "lake-acuity",
            "url": "http://127.0.0.1:8000/api/v2/location/28/"
        },
        {
            "name": "valor-lakefront",
            "url": "http://127.0.0.1:8000/api/v2/location/29/"
        },
        {
            "name": "acuity-lakefront",
            "url": "http://127.0.0.1:8000/api/v2/location/30/"
        },
        {
            "name": "sinnoh-route-201",
            "url": "http://127.0.0.1:8000/api/v2/location/31/"
        },
        {
            "name": "sinnoh-route-202",
            "url": "http://127.0.0.1:8000/api/v2/location/32/"
        },
        {
            "name": "sinnoh-route-203",
            "url": "http://127.0.0.1:8000/api/v2/location/33/"
        },
        {
            "name": "sinnoh-route-204",
            "url": "http://127.0.0.1:8000/api/v2/location/34/"
        },
        {
            "name": "sinnoh-route-205",
            "url": "http://127.0.0.1:8000/api/v2/location/35/"
        },
        {
            "name": "sinnoh-route-206",
            "url": "http://127.0.0.1:8000/api/v2/location/36/"
        },
        {
            "name": "sinnoh-route-207",
            "url": "http://127.0.0.1:8000/api/v2/location/37/"
        },
        {
            "name": "sinnoh-route-208",
            "url": "http://127.0.0.1:8000/api/v2/location/38/"
        },
        {
            "name": "sinnoh-route-209",
            "url": "http://127.0.0.1:8000/api/v2/location/39/"
        },
        {
            "name": "lost-tower",
            "url": "http://127.0.0.1:8000/api/v2/location/40/"
        },
        {
            "name": "sinnoh-route-210",
            "url": "http://127.0.0.1:8000/api/v2/location/41/"
        },
        {
            "name": "sinnoh-route-211",
            "url": "http://127.0.0.1:8000/api/v2/location/42/"
        },
        {
            "name": "sinnoh-route-212",
            "url": "http://127.0.0.1:8000/api/v2/location/43/"
        },
        {
            "name": "sinnoh-route-213",
            "url": "http://127.0.0.1:8000/api/v2/location/44/"
        },
        {
            "name": "sinnoh-route-214",
            "url": "http://127.0.0.1:8000/api/v2/location/45/"
        },
        {
            "name": "sinnoh-route-215",
            "url": "http://127.0.0.1:8000/api/v2/location/46/"
        },
        {
            "name": "sinnoh-route-216",
            "url": "http://127.0.0.1:8000/api/v2/location/47/"
        },
        {
            "name": "sinnoh-route-217",
            "url": "http://127.0.0.1:8000/api/v2/location/48/"
        },
        {
            "name": "sinnoh-route-218",
            "url": "http://127.0.0.1:8000/api/v2/location/49/"
        },
        {
            "name": "sinnoh-route-219",
            "url": "http://127.0.0.1:8000/api/v2/location/50/"
        },
        {
            "name": "sinnoh-route-221",
            "url": "http://127.0.0.1:8000/api/v2/location/51/"
        }
    ]
}
