{
    "count": 746,
    "next": "http://127.0.0.1:8000/api/v2/item/?limit=50&offset=50",
    "previous": null,
    "results": [
        {
            "name": "master-ball",
            "url": "http://127.0.0.1:8000/api/v2/item/1/"
        },
        {
            "name": "ultra-ball",
            "url": "http://127.0.0.1:8000/api/v2/item/2/"
        },
        {
            "name": "great-ball",
            "url": "http://127.0.0.1:8000/api/v2/item/3/"
        },
        {
            "name": "poke-ball",
            "url": "http://127.0.0.1:8000/api/v2/item/4/"
        },
        {
            "name": "safari-ball",
            "url": "http://127.0.0.1:8000/api/v2/item/5/"
        },
        {
            "name": "net-ball",
            "url": "http://127.0.0.1:8000/api/v2/item/6/"
        },
        {
            "name": "dive-ball",
            "url": "http://127.0.0.1:8000/api/v2/item/7/"
        },
        {
            "name": "nest-ball",
            "url": "http://127.0.0.1:8000/api/v2/item/8/"
        },
        {
            "name": "repeat-ball",
            "url": "http://127.0.0.1:8000/api/v2/item/9/"
        },
        {
            "name": "timer-ball",
            "url": "http://127.0.0.1:8000/api/v2/item/10/"
        },
        {
            "name": "luxury-ball",
            "url": "http://127.0.0.1:8000/api/v2/item/11/"
        },
        {
            "name": "premier-ball",
            "url": "http://127.0.0.1:8000/api/v2/item/12/"
        },
        {
            "name": "dusk-ball",
            "url": "http://127.0.0.1:8000/api/v2/item/13/"
        },
        {
            "name": "heal-ball",
            "url": "http://127.0.0.1:8000/api/v2/item/14/"
        },
        {
            "name": "quick-ball",
            "url": "http://127.0.0.1:8000/api/v2/item/15/"
        },
        {
            "name": "cherish-ball",
            "url": "http://127.0.0.1:8000/api/v2/item/16/"
        },
        {
            "name": "potion",
            "url": "http://127.0.0.1:8000/api/v2/item/17/"
        },
        {
            "name": "antidote",
            "url": "http://127.0.0.1:8000/api/v2/item/18/"
        },
        {
            "name": "burn-heal",
            "url": "http://127.0.0.1:8000/api/v2/item/19/"
        },
        {
            "name": "ice-heal",
            "url": "http://127.0.0.1:8000/api/v2/item/20/"
        },
        {
            "name": "awakening",
            "url": "http://127.0.0.1:8000/api/v2/item/21/"
        },
        {
            "name": "paralyze-heal",
            "url": "http://127.0.0.1:8000/api/v2/item/22/"
        },
        {
            "name": "full-restore",
            "url": "http://127.0.0.1:8000/api/v2/item/23/"
        },
        {
            "name": "max-potion",
            "url": "http://127.0.0.1:8000/api/v2/item/24/"
        },
        {
            "name": "hyper-potion",
            "url": "http://127.0.0.1:8000/api/v2/item/25/"
        },
        {
            "name": "super-potion",
            "url": "http://127.0.0.1:8000/api/v2/item/26/"
        },
        {
            "name": "full-heal",
            "url": "http://127.0.0.1:8000/api/v2/item/27/"
        },
        {
            "name": "revive",
            "url": "http://127.0.0.1:8000/api/v2/item/28/"
        },
        {
            "name": "max-revive",
            "url": "http://127.0.0.1:8000/api/v2/item/29/"
        },
        {
            "name": "fresh-water",
            "url": "http://127.0.0.1:8000/api/v2/item/30/"
        },
        {
            "name": "soda-pop",
            "url": "http://127.0.0.1:8000/api/v2/item/31/"
        },
        {
            "name": "lemonade",
            "url": "http://127.0.0.1:8000/api/v2/item/32/"
        },
        {
            "name": "moomoo-milk",
            "url": "http://127.0.0.1:8000/api/v2/item/33/"
        },
        {
            "name": "energy-powder",
            "url": "http://127.0.0.1:8000/api/v2/item/34/"
        },
        {
            "name": "energy-root",
            "url": "http://127.0.0.1:8000/api/v2/item/35/"
        },
        {
            "name": "heal-powder",
            "url": "http://127.0.0.1:8000/api/v2/item/36/"
        },
        {
            "name": "revival-herb",
            "url": "http://127.0.0.1:8000/api/v2/item/37/"
        },
        {
            "name": "ether",
            "url": "http://127.0.0.1:8000/api/v2/item/38/"
        },
        {
            "name": "max-ether",
            "url": "http://127.0.0.1:8000/api/v2/item/39/"
        },
        {
            "name": "elixir",
            "url": "http://127.0.0.1:8000/api/v2/item/40/"
        },
        {
            "name": "max-elixir",
            "url": "http://127.0.0.1:8000/api/v2/item/41/"
        },
        {
            "name": "lava-cookie",
            "url": "http://127.0.0.1:8000/api/v2/item/42/"
        },
        {
            "name": "berry-juice",
            "url": "http://127.0.0.1:8000/api/v2/item/43/"
        },
        {
            "name": "sacred-ash",
            "url": "http://127.0.0.1:8000/api/v2/item/44/"
        },
        {
            "name": "hp-up",
            "url": "http://127.0.0.1:8000/api/v2/item/45/"
        },
        {
            "name": "protein",
            "url": "http://127.0.0.1:8000/api/v2/item/46/"
        },
        {
            "name": "iron",
            "url": "http://127.0.0.1:8000/api/v2/item/47/"
        },
        {
            "name": "carbos",
            "url": "http://127.0.0.1:8000/api/v2/item/48/"
        },
        {
            "name": "calcium",
            "url": "http://127.0.0.1:8000/api/v2/item/49/"
        },
        {
            "name": "rare-candy",
            "url": "http://127.0.0.1:8000/api/v2/item/50/"
        }
    ]
}
