{
    "count": 365,
    "next": "http://127.0.0.1:8000/api/v2/evolution-chain/?limit=20&offset=20",
    "previous": null,
    "results": [
        {
            "url": "http://127.0.0.1:8000/api/v2/evolution-chain/1/"
        },
        {
            "url": "http://127.0.0.1:8000/api/v2/evolution-chain/2/"
        },
        {
            "url": "http://127.0.0.1:8000/api/v2/evolution-chain/3/"
        },
        {
            "url": "http://127.0.0.1:8000/api/v2/evolution-chain/4/"
        },
        {
            "url": "http://127.0.0.1:8000/api/v2/evolution-chain/5/"
        },
        {
            "url": "http://127.0.0.1:8000/api/v2/evolution-chain/6/"
        },
        {
            "url": "http://127.0.0.1:8000/api/v2/evolution-chain/7/"
        },
        {
            "url": "http://127.0.0.1:8000/api/v2/evolution-chain/8/"
        },
        {
            "url": "http://127.0.0.1:8000/api/v2/evolution-chain/9/"
        },
        {
            "url": "http://127.0.0.1:8000/api/v2/evolution-chain/10/"
        },
        {
            "url": "http://127.0.0.1:8000/api/v2/evolution-chain/11/"
        },
        {
            "url": "http://127.0.0.1:8000/api/v2/evolution-chain/12/"
        },
        {
            "url": "http://127.0.0.1:8000/api/v2/evolution-chain/13/"
        },
        {
            "url": "http://127.0.0.1:8000/api/v2/evolution-chain/14/"
        },
        {
            "url": "http://127.0.0.1:8000/api/v2/evolution-chain/15/"
        },
        {
            "url": "http://127.0.0.1:8000/api/v2/evolution-chain/16/"
        },
        {
            "url": "http://127.0.0.1:8000/api/v2/evolution-chain/17/"
        },
        {
            "url": "http://127.0.0.1:8000/api/v2/evolution-chain/18/"
        },
        {
            "url": "http://127.0.0.1:8000/api/v2/evolution-chain/19/"
        },
        {
            "url": "http://127.0.0.1:8000/api/v2/evolution-chain/20/"
        }
    ]
}
