{
    "count": 365,
    "next": "http://127.0.0.1:8000/api/v2/evolution-chain/?limit=50&offset=50",
    "previous": null,
    "results": [
        {
            "url": "http://127.0.0.1:8000/api/v2/evolution-chain/1/"
        },
        {
            "url": "http://127.0.0.1:8000/api/v2/evolution-chain/2/"
        },
        {
            "url": "http://127.0.0.1:8000/api/v2/evolution-chain/3/"
        },
        {
            "url": "http://127.0.0.1:8000/api/v2/evolution-chain/4/"
        },
        {
            "url": "http://127.0.0.1:8000/api/v2/evolution-chain/5/"
        },
        {
            "url": "http://127.0.0.1:8000/api/v2/evolution-chain/6/"
        },
        {
            "url": "http://127.0.0.1:8000/api/v2/evolution-chain/7/"
        },
        {
            "url": "http://127.0.0.1:8000/api/v2/evolution-chain/8/"
        },
        {
            "url": "http://127.0.0.1:8000/api/v2/evolution-chain/9/"
        },
        {
            "url": "http://127.0.0.1:8000/api/v2/evolution-chain/10/"
        },
        {
            "url": "http://127.0.0.1:8000/api/v2/evolution-chain/11/"
        },
        {
            "url": "http://127.0.0.1:8000/api/v2/evolution-chain/12/"
        },
        {
            "url": "http://127.0.0.1:8000/api/v2/evolution-chain/13/"
        },
        {
            "url": "http://127.0.0.1:8000/api/v2/evolution-chain/14/"
        },
        {
            "url": "http://127.0.0.1:8000/api/v2/evolution-chain/15/"
        },
        {
            "url": "http://127.0.0.1:8000/api/v2/evolution-chain/16/"
        },
        {
            "url": "http://127.0.0.1:8000/api/v2/evolution-chain/17/"
        },
        {
            "url": "http://127.0.0.1:8000/api/v2/evolution-chain/18/"
        },
        {
            "url": "http://127.0.0.1:8000/api/v2/evolution-chain/19/"
        },
        {
            "url": "http://127.0.0.1:8000/api/v2/evolution-chain/20/"
        },
        {
            "url": "http://127.0.0.1:8000/api/v2/evolution-chain/21/"
        },
        {
            "url": "http://127.0.0.1:8000/api/v2/evolution-chain/22/"
        },
        {
            "url": "http://127.0.0.1:8000/api/v2/evolution-chain/23/"
        },
        {
            "url": "http://127.0.0.1:8000/api/v2/evolution-chain/24/"
        },
        {
            "url": "http://127.0.0.1:8000/api/v2/evolution-chain/25/"
        },
        {
            "url": "http://127.0.0.1:8000/api/v2/evolution-chain/26/"
        },
        {
            "url": "http://127.0.0.1:8000/api/v2/evolution-chain/27/"
        },
        {
            "url": "http://127.0.0.1:8000/api/v2/evolution-chain/28/"
        },
        {
            "url": "http://127.0.0.1:8000/api/v2/evolution-chain/29/"
        },
        {
            "url": "http://127.0.0.1:8000/api/v2/evolution-chain/30/"
        },
        {
            "url": "http://127.0.0.1:8000/api/v2/evolution-chain/31/"
        },
        {
            "url": "http://127.0.0.1:8000/api/v2/evolution-chain/32/"
        },
        {
            "url": "http://127.0.0.1:8000/api/v2/evolution-chain/33/"
        },
        {
            "url": "http://127.0.0.1:8000/api/v2/evolution-chain/34/"
        },
        {
            "url": "http://127.0.0.1:8000/api/v2/evolution-chain/35/"
        },
        {
            "url": "http://127.0.0.1:8000/api/v2/evolution-chain/36/"
        },
        {
            "url": "http://127.0.0.1:8000/api/v2/evolution-chain/37/"
        },
        {
            "url": "http://127.0.0.1:8000/api/v2/evolution-chain/38/"
        },
        {
            "url": "http://127.0.0.1:8000/api/v2/evolution-chain/39/"
        },
        {
            "url": "http://127.0.0.1:8000/api/v2/evolution-chain/40/"
        },
        {
            "url": "http://127.0.0.1:8000/api/v2/evolution-chain/41/"
        },
        {
            "url": "http://127.0.0.1:8000/api/v2/evolution-chain/42/"
        },
        {
            "url": "http://127.0.0.1:8000/api/v2/evolution-chain/43/"
        },
        {
            "url": "http://127.0.0.1:8000/api/v2/evolution-chain/44/"
        },
        {
            "url": "http://127.0.0.1:8000/api/v2/evolution-chain/45/"
        },
        {
            "url": "http://127.0.0.1:8000/api/v2/evolution-chain/46/"
        },
        {
            "url": "http://127.0.0.1:8000/api/v2/evolution-chain/47/"
        },
        {
            "url": "http://127.0.0.1:8000/api/v2/evolution-chain/48/"
        },
        {
            "url": "http://127.0.0.1:8000/api/v2/evolution-chain/49/"
        },
        {
            "url": "http://127.0.0.1:8000/api/v2/evolution-chain/50/"
        }
    ]
}
