{
    "count": 913,
    "next": "http://127.0.0.1:8000/api/v2/pokemon-form/?limit=20&offset=20",
    "previous": null,
    "results": [
        {
            "name": "bulbasaur",
            "url": "http://127.0.0.1:8000/api/v2/pokemon-form/1/"
        },
        {
            "name": "ivysaur",
            "url": "http://127.0.0.1:8000/api/v2/pokemon-form/2/"
        },
        {
            "name": "venusaur",
            "url": "http://127.0.0.1:8000/api/v2/pokemon-form/3/"
        },
        {
            "name": "charmander",
            "url": "http://127.0.0.1:8000/api/v2/pokemon-form/4/"
        },
        {
            "name": "charmeleon",
            "url": "http://127.0.0.1:8000/api/v2/pokemon-form/5/"
        },
        {
            "name": "charizard",
            "url": "http://127.0.0.1:8000/api/v2/pokemon-form/6/"
        },
        {
            "name": "squirtle",
            "url": "http://127.0.0.1:8000/api/v2/pokemon-form/7/"
        },
        {
            "name": "wartortle",
            "url": "http://127.0.0.1:8000/api/v2/pokemon-form/8/"
        },
        {
            "name": "blastoise",
            "url": "http://127.0.0.1:8000/api/v2/pokemon-form/9/"
        },
        {
            "name": "caterpie",
            "url": "http://127.0.0.1:8000/api/v2/pokemon-form/10/"
        },
        {
            "name": "metapod",
            "url": "http://127.0.0.1:8000/api/v2/pokemon-form/11/"
        },
        {
            "name": "butterfree",
            "url": "http://127.0.0.1:8000/api/v2/pokemon-form/12/"
        },
        {
            "name": "weedle",
            "url": "http://127.0.0.1:8000/api/v2/pokemon-form/13/"
        },
        {
            "name": "kakuna",
            "url": "http://127.0.0.1:8000/api/v2/pokemon-form/14/"
        },
        {
            "name": "beedrill",
            "url": "http://127.0.0.1:8000/api/v2/pokemon-form/15/"
        },
        {
            "name": "pidgey",
            "url": "http://127.0.0.1:8000/api/v2/pokemon-form/16/"
        },
        {
            "name": "pidgeotto",
            "url": "http://127.0.0.1:8000/api/v2/pokemon-form/17/"
        },
        {
            "name": "pidgeot",
            "url": "http://127.0.0.1:8000/api/v2/pokemon-form/18/"
        },
        {
            "name": "rattata",
            "url": "http://127.0.0.1:8000/api/v2/pokemon-form/19/"
        },
        {
            "name": "raticate",
            "url": "http://127.0.0.1:8000/api/v2/pokemon-form/20/"
        }
    ]
}
