{
    "count": 913,
    "next": "http://127.0.0.1:8000/api/v2/pokemon-form/?limit=50&offset=50",
    "previous": null,
    "results": [
        {
            "name": "bulbasaur",
            "url": "http://127.0.0.1:8000/api/v2/pokemon-form/1/"
        },
        {
            "name": "ivysaur",
            "url": "http://127.0.0.1:8000/api/v2/pokemon-form/2/"
        },
        {
            "name": "venusaur",
            "url": "http://127.0.0.1:8000/api/v2/pokemon-form/3/"
        },
        {
            "name": "charmander",
            "url": "http://127.0.0.1:8000/api/v2/pokemon-form/4/"
        },
        {
            "name": "charmeleon",
            "url": "http://127.0.0.1:8000/api/v2/pokemon-form/5/"
        },
        {
            "name": "charizard",
            "url": "http://127.0.0.1:8000/api/v2/pokemon-form/6/"
        },
        {
            "name": "squirtle",
            "url": "http://127.0.0.1:8000/api/v2/pokemon-form/7/"
        },
        {
            "name": "wartortle",
            "url": "http://127.0.0.1:8000/api/v2/pokemon-form/8/"
        },
        {
            "name": "blastoise",
            "url": "http://127.0.0.1:8000/api/v2/pokemon-form/9/"
        },
        {
            "name": "caterpie",
            "url": "http://127.0.0.1:8000/api/v2/pokemon-form/10/"
        },
        {
            "name": "metapod",
            "url": "http://127.0.0.1:8000/api/v2/pokemon-form/11/"
        },
        {
            "name": "butterfree",
            "url": "http://127.0.0.1:8000/api/v2/pokemon-form/12/"
        },
        {
            "name": "weedle",
            "url": "http://127.0.0.1:8000/api/v2/pokemon-form/13/"
        },
        {
            "name": "kakuna",
            "url": "http://127.0.0.1:8000/api/v2/pokemon-form/14/"
        },
        {
            "name": "beedrill",
            "url": "http://127.0.0.1:8000/api/v2/pokemon-form/15/"
        },
        {
            "name": "pidgey",
            "url": "http://127.0.0.1:8000/api/v2/pokemon-form/16/"
        },
        {
            "name": "pidgeotto",
            "url": "http://127.0.0.1:8000/api/v2/pokemon-form/17/"
        },
        {
            "name": "pidgeot",
            "url": "http://127.0.0.1:8000/api/v2/pokemon-form/18/"
        },
        {
            "name": "rattata",
            "url": "http://127.0.0.1:8000/api/v2/pokemon-form/19/"
        },
        {
            "name": "raticate",
            "url": "http://127.0.0.1:8000/api/v2/pokemon-form/20/"
        },
        {
            "name": "spearow",
            "url": "http://127.0.0.1:8000/api/v2/pokemon-form/21/"
        },
        {
            "name": "fearow",
            "url": "http://127.0.0.1:8000/api/v2/pokemon-form/22/"
        },
        {
            "name": "ekans",
            "url": "http://127.0.0.1:8000/api/v2/pokemon-form/23/"
        },
        {
            "name": "arbok",
            "url": "http://127.0.0.1:8000/api/v2/pokemon-form/24/"
        },
        {
            "name": "pikachu",
            "url": "http://127.0.0.1:8000/api/v2/pokemon-form/25/"
        },
        {
            "name": "raichu",
            "url": "http://127.0.0.1:8000/api/v2/pokemon-form/26/"
        },
        {
            "name": "sandshrew",
            "url": "http://127.0.0.1:8000/api/v2/pokemon-form/27/"
        },
        {
            "name": "sandslash",
            "url": "http://127.0.0.1:8000/api/v2/pokemon-form/28/"
        },
        {
            "name": "nidoran-f",
            "url": "http://127.0.0.1:8000/api/v2/pokemon-form/29/"
        },
        {
            "name": "nidorina",
            "url": "http://127.0.0.1:8000/api/v2/pokemon-form/30/"
        },
        {
            "name": "nidoqueen",
            "url": "http://127.0.0.1:8000/api/v2/pokemon-form/31/"
        },
        {
            "name": "nidoran-m",
            "url": "http://127.0.0.1:8000/api/v2/pokemon-form/32/"
        },
        {
            "name": "nidorino",
            "url": "http://127.0.0.1:8000/api/v2/pokemon-form/33/"
        },
        {
            "name": "nidoking",
            "url": "http://127.0.0.1:8000/api/v2/pokemon-form/34/"
        },
        {
            "name": "clefairy",
            "url": "http://127.0.0.1:8000/api/v2/pokemon-form/35/"
        },
        {
            "name": "clefable",
            "url": "http://127.0.0.1:8000/api/v2/pokemon-form/36/"
        },
        {
            "name": "vulpix",
            "url": "http://127.0.0.1:8000/api/v2/pokemon-form/37/"
        },
        {
            "name": "ninetales",
            "url": "http://127.0.0.1:8000/api/v2/pokemon-form/38/"
        },
        {
            "name": "jigglypuff",
            "url": "http://127.0.0.1:8000/api/v2/pokemon-form/39/"
        },
        {
            "name": "wigglytuff",
            "url": "http://127.0.0.1:8000/api/v2/pokemon-form/40/"
        },
        {
            "name": "zubat",
            "url": "http://127.0.0.1:8000/api/v2/pokemon-form/41/"
        },
        {
            "name": "golbat",
            "url": "http://127.0.0.1:8000/api/v2/pokemon-form/42/"
        },
        {
            "name": "oddish",
            "url": "http://127.0.0.1:8000/api/v2/pokemon-form/43/"
        },
        {
            "name": "gloom",
            "url": "http://127.0.0.1:8000/api/v2/pokemon-form/44/"
        },
        {
            "name": "vileplume",
            "url": "http://127.0.0.1:8000/api/v2/pokemon-form/45/"
        },
        {
            "name": "paras",
            "url": "http://127.0.0.1:8000/api/v2/pokemon-form/46/"
        },
        {
            "name": "parasect",
            "url": "http://127.0.0.1:8000/api/v2/pokemon-form/47/"
        },
        {
            "name": "venonat",
            "url": "http://127.0.0.1:8000/api/v2/pokemon-form/48/"
        },
        {
            "name": "venomoth",
            "url": "http://127.0.0.1:8000/api/v2/pokemon-form/49/"
        },
        {
            "name": "diglett",
            "url": "http://127.0.0.1:8000/api/v2/pokemon-form/50/"
        }
    ]
}
