{
    "count": 251,
    "next": "http://127.0.0.1:8000/api/v2/ability/?limit=20&offset=20",
    "previous": null,
    "results": [
        {
            "name": "stench",
            "url": "http://127.0.0.1:8000/api/v2/ability/1/"
        },
        {
            "name": "drizzle",
            "url": "http://127.0.0.1:8000/api/v2/ability/2/"
        },
        {
            "name": "speed-boost",
            "url": "http://127.0.0.1:8000/api/v2/ability/3/"
        },
        {
            "name": "battle-armor",
            "url": "http://127.0.0.1:8000/api/v2/ability/4/"
        },
        {
            "name": "sturdy",
            "url": "http://127.0.0.1:8000/api/v2/ability/5/"
        },
        {
            "name": "damp",
            "url": "http://127.0.0.1:8000/api/v2/ability/6/"
        },
        {
            "name": "limber",
            "url": "http://127.0.0.1:8000/api/v2/ability/7/"
        },
        {
            "name": "sand-veil",
            "url": "http://127.0.0.1:8000/api/v2/ability/8/"
        },
        {
            "name": "static",
            "url": "http://127.0.0.1:8000/api/v2/ability/9/"
        },
        {
            "name": "volt-absorb",
            "url": "http://127.0.0.1:8000/api/v2/ability/10/"
        },
        {
            "name": "water-absorb",
            "url": "http://127.0.0.1:8000/api/v2/ability/11/"
        },
        {
            "name": "oblivious",
            "url": "http://127.0.0.1:8000/api/v2/ability/12/"
        },
        {
            "name": "cloud-nine",
            "url": "http://127.0.0.1:8000/api/v2/ability/13/"
        },
        {
            "name": "compound-eyes",
            "url": "http://127.0.0.1:8000/api/v2/ability/14/"
        },
        {
            "name": "insomnia",
            "url": "http://127.0.0.1:8000/api/v2/ability/15/"
        },
        {
            "name": "color-change",
            "url": "http://127.0.0.1:8000/api/v2/ability/16/"
        },
        {
            "name": "immunity",
            "url": "http://127.0.0.1:8000/api/v2/ability/17/"
        },
        {
            "name": "flash-fire",
            "url": "http://127.0.0.1:8000/api/v2/ability/18/"
        },
        {
            "name": "shield-dust",
            "url": "http://127.0.0.1:8000/api/v2/ability/19/"
        },
        {
            "name": "own-tempo",
            "url": "http://127.0.0.1:8000/api/v2/ability/20/"
        }
    ]
}
