{
    "count": 251,
    "next": "http://127.0.0.1:8000/api/v2/ability/?limit=50&offset=50",
    "previous": null,
    "results": [
        {
            "name": "stench",
            "url": "http://127.0.0.1:8000/api/v2/ability/1/"
        },
        {
            "name": "drizzle",
            "url": "http://127.0.0.1:8000/api/v2/ability/2/"
        },
        {
            "name": "speed-boost",
            "url": "http://127.0.0.1:8000/api/v2/ability/3/"
        },
        {
            "name": "battle-armor",
            "url": "http://127.0.0.1:8000/api/v2/ability/4/"
        },
        {
            "name": "sturdy",
            "url": "http://127.0.0.1:8000/api/v2/ability/5/"
        },
        {
            "name": "damp",
            "url": "http://127.0.0.1:8000/api/v2/ability/6/"
        },
        {
            "name": "limber",
            "url": "http://127.0.0.1:8000/api/v2/ability/7/"
        },
        {
            "name": "sand-veil",
            "url": "http://127.0.0.1:8000/api/v2/ability/8/"
        },
        {
            "name": "static",
            "url": "http://127.0.0.1:8000/api/v2/ability/9/"
        },
        {
            "name": "volt-absorb",
            "url": "http://127.0.0.1:8000/api/v2/ability/10/"
        },
        {
            "name": "water-absorb",
            "url": "http://127.0.0.1:8000/api/v2/ability/11/"
        },
        {
            "name": "oblivious",
            "url": "http://127.0.0.1:8000/api/v2/ability/12/"
        },
        {
            "name": "cloud-nine",
            "url": "http://127.0.0.1:8000/api/v2/ability/13/"
        },
        {
            "name": "compound-eyes",
            "url": "http://127.0.0.1:8000/api/v2/ability/14/"
        },
        {
            "name": "insomnia",
            "url": "http://127.0.0.1:8000/api/v2/ability/15/"
        },
        {
            "name": "color-change",
            "url": "http://127.0.0.1:8000/api/v2/ability/16/"
        },
        {
            "name": "immunity",
            "url": "http://127.0.0.1:8000/api/v2/ability/17/"
        },
        {
            "name": "flash-fire",
            "url": "http://127.0.0.1:8000/api/v2/ability/18/"
        },
        {
            "name": "shield-dust",
            "url": "http://127.0.0.1:8000/api/v2/ability/19/"
        },
        {
            "name": "own-tempo",
            "url": "http://127.0.0.1:8000/api/v2/ability/20/"
        },
        {
            "name": "suction-cups",
            "url": "http://127.0.0.1:8000/api/v2/ability/21/"
        },
        {
            "name": "intimidate",
            "url": "http://127.0.0.1:8000/api/v2/ability/22/"
        },
        {
            "name": "shadow-tag",
            "url": "http://127.0.0.1:8000/api/v2/ability/23/"
        },
        {
            "name": "rough-skin",
            "url": "http://127.0.0.1:8000/api/v2/ability/24/"
        },
        {
            "name": "wonder-guard",
            "url": "http://127.0.0.1:8000/api/v2/ability/25/"
        },
        {
            "name": "levitate",
            "url": "http://127.0.0.1:8000/api/v2/ability/26/"
        },
        {
            "name": "effect-spore",
            "url": "http://127.0.0.1:8000/api/v2/ability/27/"
        },
        {
            "name": "synchronize",
            "url": "http://127.0.0.1:8000/api/v2/ability/28/"
        },
        {
            "name": "clear-body",
            "url": "http://127.0.0.1:8000/api/v2/ability/29/"
        },
        {
            "name": "natural-cure",
            "url": "http://127.0.0.1:8000/api/v2/ability/30/"
        },
        {
            "name": "lightning-rod",
            "url": "http://127.0.0.1:8000/api/v2/ability/31/"
        },
        {
            "name": "serene-grace",
            "url": "http://127.0.0.1:8000/api/v2/ability/32/"
        },
        {
            "name": "swift-swim",
            "url": "http://127.0.0.1:8000/api/v2/ability/33/"
        },
        {
            "name": "chlorophyll",
            "url": "http://127.0.0.1:8000/api/v2/ability/34/"
        },
        {
            "name": "illuminate",
            "url": "http://127.0.0.1:8000/api/v2/ability/35/"
        },
        {
            "name": "trace",
            "url": "http://127.0.0.1:8000/api/v2/ability/36/"
        },
        {
            "name": "huge-power",
            "url": "http://127.0.0.1:8000/api/v2/ability/37/"
        },
        {
            "name": "poison-point",
            "url": "http://127.0.0.1:8000/api/v2/ability/38/"
        },
        {
            "name": "inner-focus",
            "url": "http://127.0.0.1:8000/api/v2/ability/39/"
        },
        {
            "name": "magma-armor",
            "url": "http://127.0.0.1:8000/api/v2/ability/40/"
        },
        {
            "name": "water-veil",
            "url": "http://127.0.0.1:8000/api/v2/ability/41/"
        },
        {
            "name": "magnet-pull",
            "url": "http://127.0.0.1:8000/api/v2/ability/42/"
        },
        {
            "name": "soundproof",
            "url": "http://127.0.0.1:8000/api/v2/ability/43/"
        },
        {
            "name": "rain-dish",
            "url": "http://127.0.0.1:8000/api/v2/ability/44/"
        },
        {
            "name": "sand-stream",
            "url": "http://127.0.0.1:8000/api/v2/ability/45/"
        },
        {
            "name": "pressure",
            "url": "http://127.0.0.1:8000/api/v2/ability/46/"
        },
        {
            "name": "thick-fat",
            "url": "http://127.0.0.1:8000/api/v2/ability/47/"
        },
        {
            "name": "early-bird",
            "url": "http://127.0.0.1:8000/api/v2/ability/48/"
        },
        {
            "name": "flame-body",
            "url": "http://127.0.0.1:8000/api/v2/ability/49/"
        },
        {
            "name": "run-away",
            "url": "http://127.0.0.1:8000/api/v2/ability/50/"
        }
    ]
}
