{
    "count": 26,
    "next": "http://127.0.0.1:8000/api/v2/version/?limit=20&offset=20",
    "previous": null,
    "results": [
        {
            "name": "red",
            "url": "http://127.0.0.1:8000/api/v2/version/1/"
        },
        {
            "name": "blue",
            "url": "http://127.0.0.1:8000/api/v2/version/2/"
        },
        {
            "name": "yellow",
            "url": "http://127.0.0.1:8000/api/v2/version/3/"
        },
        {
            "name": "gold",
            "url": "http://127.0.0.1:8000/api/v2/version/4/"
        },
        {
            "name": "silver",
            "url": "http://127.0.0.1:8000/api/v2/version/5/"
        },
        {
            "name": "crystal",
            "url": "http://127.0.0.1:8000/api/v2/version/6/"
        },
        {
            "name": "ruby",
            "url": "http://127.0.0.1:8000/api/v2/version/7/"
        },
        {
            "name": "sapphire",
            "url": "http://127.0.0.1:8000/api/v2/version/8/"
        },
        {
            "name": "emerald",
            "url": "http://127.0.0.1:8000/api/v2/version/9/"
        },
        {
            "name": "firered",
            "url": "http://127.0.0.1:8000/api/v2/version/10/"
        },
        {
            "name": "leafgreen",
            "url": "http://127.0.0.1:8000/api/v2/version/11/"
        },
        {
            "name": "diamond",
            "url": "http://127.0.0.1:8000/api/v2/version/12/"
        },
        {
            "name": "pearl",
            "url": "http://127.0.0.1:8000/api/v2/version/13/"
        },
        {
            "name": "platinum",
            "url": "http://127.0.0.1:8000/api/v2/version/14/"
        },
        {
            "name": "heartgold",
            "url": "http://127.0.0.1:8000/api/v2/version/15/"
        },
        {
            "name": "soulsilver",
            "url": "http://127.0.0.1:8000/api/v2/version/16/"
        },
        {
            "name": "black",
            "url": "http://127.0.0.1:8000/api/v2/version/17/"
        },
        {
            "name": "white",
            "url": "http://127.0.0.1:8000/api/v2/version/18/"
        },
        {
            "name": "colosseum",
            "url": "http://127.0.0.1:8000/api/v2/version/19/"
        },
        {
            "name": "xd",
            "url": "http://127.0.0.1:8000/api/v2/version/20/"
        }
    ]
}
