{
    "count": 25,
    "next": "http://127.0.0.1:8000/api/v2/nature/?limit=20&offset=20",
    "previous": null,
    "results": [
        {
            "name": "hardy",
            "url": "http://127.0.0.1:8000/api/v2/nature/1/"
        },
        {
            "name": "bold",
            "url": "http://127.0.0.1:8000/api/v2/nature/2/"
        },
        {
            "name": "modest",
            "url": "http://127.0.0.1:8000/api/v2/nature/3/"
        },
        {
            "name": "calm",
            "url": "http://127.0.0.1:8000/api/v2/nature/4/"
        },
        {
            "name": "timid",
            "url": "http://127.0.0.1:8000/api/v2/nature/5/"
        },
        {
            "name": "lonely",
            "url": "http://127.0.0.1:8000/api/v2/nature/6/"
        },
        {
            "name": "docile",
            "url": "http://127.0.0.1:8000/api/v2/nature/7/"
        },
        {
            "name": "mild",
            "url": "http://127.0.0.1:8000/api/v2/nature/8/"
        },
        {
            "name": "gentle",
            "url": "http://127.0.0.1:8000/api/v2/nature/9/"
        },
        {
            "name": "hasty",
            "url": "http://127.0.0.1:8000/api/v2/nature/10/"
        },
        {
            "name": "adamant",
            "url": "http://127.0.0.1:8000/api/v2/nature/11/"
        },
        {
            "name": "impish",
            "url": "http://127.0.0.1:8000/api/v2/nature/12/"
        },
        {
            "name": "bashful",
            "url": "http://127.0.0.1:8000/api/v2/nature/13/"
        },
        {
            "name": "careful",
            "url": "http://127.0.0.1:8000/api/v2/nature/14/"
        },
        {
            "name": "rash",
            "url": "http://127.0.0.1:8000/api/v2/nature/15/"
        },
        {
            "name": "jolly",
            "url": "http://127.0.0.1:8000/api/v2/nature/16/"
        },
        {
            "name": "naughty",
            "url": "http://127.0.0.1:8000/api/v2/nature/17/"
        },
        {
            "name": "lax",
            "url": "http://127.0.0.1:8000/api/v2/nature/18/"
        },
        {
            "name": "quirky",
            "url": "http://127.0.0.1:8000/api/v2/nature/19/"
        },
        {
            "name": "naive",
            "url": "http://127.0.0.1:8000/api/v2/nature/20/"
        }
    ]
}
