{
    "count": 64,
    "next": "http://127.0.0.1:8000/api/v2/berry/?limit=20&offset=20",
    "previous": null,
    "results": [
        {
            "name": "cheri",
            "url": "http://127.0.0.1:8000/api/v2/berry/1/"
        },
        {
            "name": "chesto",
            "url": "http://127.0.0.1:8000/api/v2/berry/2/"
        },
        {
            "name": "pecha",
            "url": "http://127.0.0.1:8000/api/v2/berry/3/"
        },
        {
            "name": "rawst",
            "url": "http://127.0.0.1:8000/api/v2/berry/4/"
        },
        {
            "name": "aspear",
            "url": "http://127.0.0.1:8000/api/v2/berry/5/"
        },
        {
            "name": "leppa",
            "url": "http://127.0.0.1:8000/api/v2/berry/6/"
        },
        {
            "name": "oran",
            "url": "http://127.0.0.1:8000/api/v2/berry/7/"
        },
        {
            "name": "persim",
            "url": "http://127.0.0.1:8000/api/v2/berry/8/"
        },
        {
            "name": "lum",
            "url": "http://127.0.0.1:8000/api/v2/berry/9/"
        },
        {
            "name": "sitrus",
            "url": "http://127.0.0.1:8000/api/v2/berry/10/"
        },
        {
            "name": "figy",
            "url": "http://127.0.0.1:8000/api/v2/berry/11/"
        },
        {
            "name": "wiki",
            "url": "http://127.0.0.1:8000/api/v2/berry/12/"
        },
        {
            "name": "mago",
            "url": "http://127.0.0.1:8000/api/v2/berry/13/"
        },
        {
            "name": "aguav",
            "url": "http://127.0.0.1:8000/api/v2/berry/14/"
        },
        {
            "name": "iapapa",
            "url": "http://127.0.0.1:8000/api/v2/berry/15/"
        },
        {
            "name": "razz",
            "url": "http://127.0.0.1:8000/api/v2/berry/16/"
        },
        {
            "name": "bluk",
            "url": "http://127.0.0.1:8000/api/v2/berry/17/"
        },
        {
            "name": "nanab",
            "url": "http://127.0.0.1:8000/api/v2/berry/18/"
        },
        {
            "name": "wepear",
            "url": "http://127.0.0.1:8000/api/v2/berry/19/"
        },
        {
            "name": "pinap",
            "url": "http://127.0.0.1:8000/api/v2/berry/20/"
        }
    ]
}
