{
    "count": 721,
    "next": "http://127.0.0.1:8000/api/v2/pokemon-species/?limit=20&offset=20",
    "previous": null,
    "results": [
        {
            "name": "bulbasaur",
            "url": "http://127.0.0.1:8000/api/v2/pokemon-species/1/"
        },
        {
            "name": "ivysaur",
            "url": "http://127.0.0.1:8000/api/v2/pokemon-species/2/"
        },
        {
            "name": "venusaur",
            "url": "http://127.0.0.1:8000/api/v2/pokemon-species/3/"
        },
        {
            "name": "charmander",
            "url": "http://127.0.0.1:8000/api/v2/pokemon-species/4/"
        },
        {
            "name": "charmeleon",
            "url": "http://127.0.0.1:8000/api/v2/pokemon-species/5/"
        },
        {
            "name": "charizard",
            "url": "http://127.0.0.1:8000/api/v2/pokemon-species/6/"
        },
        {
            "name": "squirtle",
            "url": "http://127.0.0.1:8000/api/v2/pokemon-species/7/"
        },
        {
            "name": "wartortle",
            "url": "http://127.0.0.1:8000/api/v2/pokemon-species/8/"
        },
        {
            "name": "blastoise",
            "url": "http://127.0.0.1:8000/api/v2/pokemon-species/9/"
        },
        {
            "name": "caterpie",
            "url": "http://127.0.0.1:8000/api/v2/pokemon-species/10/"
        },
        {
            "name": "metapod",
            "url": "http://127.0.0.1:8000/api/v2/pokemon-species/11/"
        },
        {
            "name": "butterfree",
            "url": "http://127.0.0.1:8000/api/v2/pokemon-species/12/"
        },
        {
            "name": "weedle",
            "url": "http://127.0.0.1:8000/api/v2/pokemon-species/13/"
        },
        {
            "name": "kakuna",
            "url": "http://127.0.0.1:8000/api/v2/pokemon-species/14/"
        },
        {
            "name": "beedrill",
            "url": "http://127.0.0.1:8000/api/v2/pokemon-species/15/"
        },
        {
            "name": "pidgey",
            "url": "http://127.0.0.1:8000/api/v2/pokemon-species/16/"
        },
        {
            "name": "pidgeotto",
            "url": "http://127.0.0.1:8000/api/v2/pokemon-species/17/"
        },
        {
            "name": "pidgeot",
            "url": "http://127.0.0.1:8000/api/v2/pokemon-species/18/"
        },
        {
            "name": "rattata",
            "url": "http://127.0.0.1:8000/api/v2/pokemon-species/19/"
        },
        {
            "name": "raticate",
            "url": "http://127.0.0.1:8000/api/v2/pokemon-species/20/"
        }
    ]
}
