{
    "count": 33,
    "next": "http://127.0.0.1:8000/api/v2/contest-effect/?limit=20&offset=20",
    "previous": null,
    "results": [
        {
            "url": "http://127.0.0.1:8000/api/v2/contest-effect/1/"
        },
        {
            "url": "http://127.0.0.1:8000/api/v2/contest-effect/2/"
        },
        {
            "url": "http://127.0.0.1:8000/api/v2/contest-effect/3/"
        },
        {
            "url": "http://127.0.0.1:8000/api/v2/contest-effect/4/"
        },
        {
            "url": "http://127.0.0.1:8000/api/v2/contest-effect/5/"
        },
        {
            "url": "http://127.0.0.1:8000/api/v2/contest-effect/6/"
        },
        {
            "url": "http://127.0.0.1:8000/api/v2/contest-effect/7/"
        },
        {
            "url": "http://127.0.0.1:8000/api/v2/contest-effect/8/"
        },
        {
            "url": "http://127.0.0.1:8000/api/v2/contest-effect/9/"
        },
        {
            "url": "http://127.0.0.1:8000/api/v2/contest-effect/10/"
        },
        {
            "url": "http://127.0.0.1:8000/api/v2/contest-effect/11/"
        },
        {
            "url": "http://127.0.0.1:8000/api/v2/contest-effect/12/"
        },
        {
            "url": "http://127.0.0.1:8000/api/v2/contest-effect/13/"
        },
        {
            "url": "http://127.0.0.1:8000/api/v2/contest-effect/14/"
        },
        {
            "url": "http://127.0.0.1:8000/api/v2/contest-effect/15/"
        },
        {
            "url": "http://127.0.0.1:8000/api/v2/contest-effect/16/"
        },
        {
            "url": "http://127.0.0.1:8000/api/v2/contest-effect/17/"
        },
        {
            "url": "http://127.0.0.1:8000/api/v2/contest-effect/18/"
        },
        {
            "url": "http://127.0.0.1:8000/api/v2/contest-effect/19/"
        },
        {
            "url": "http://127.0.0.1:8000/api/v2/contest-effect/20/"
        }
    ]
}
