{
    "count": 639,
    "next": "http://127.0.0.1:8000/api/v2/move/?limit=20&offset=20",
    "previous": null,
    "results": [
        {
            "name": "pound",
            "url": "http://127.0.0.1:8000/api/v2/move/1/"
        },
        {
            "name": "karate-chop",
            "url": "http://127.0.0.1:8000/api/v2/move/2/"
        },
        {
            "name": "double-slap",
            "url": "http://127.0.0.1:8000/api/v2/move/3/"
        },
        {
            "name": "comet-punch",
            "url": "http://127.0.0.1:8000/api/v2/move/4/"
        },
        {
            "name": "mega-punch",
            "url": "http://127.0.0.1:8000/api/v2/move/5/"
        },
        {
            "name": "pay-day",
            "url": "http://127.0.0.1:8000/api/v2/move/6/"
        },
        {
            "name": "fire-punch",
            "url": "http://127.0.0.1:8000/api/v2/move/7/"
        },
        {
            "name": "ice-punch",
            "url": "http://127.0.0.1:8000/api/v2/move/8/"
        },
        {
            "name": "thunder-punch",
            "url": "http://127.0.0.1:8000/api/v2/move/9/"
        },
        {
            "name": "scratch",
            "url": "http://127.0.0.1:8000/api/v2/move/10/"
        },
        {
            "name": "vice-grip",
            "url": "http://127.0.0.1:8000/api/v2/move/11/"
        },
        {
            "name": "guillotine",
            "url": "http://127.0.0.1:8000/api/v2/move/12/"
        },
        {
            "name": "razor-wind",
            "url": "http://127.0.0.1:8000/api/v2/move/13/"
        },
        {
            "name": "swords-dance",
            "url": "http://127.0.0.1:8000/api/v2/move/14/"
        },
        {
            "name": "cut",
            "url": "http://127.0.0.1:8000/api/v2/move/15/"
        },
        {
            "name": "gust",
            "url": "http://127.0.0.1:8000/api/v2/move/16/"
        },
        {
            "name": "wing-attack",
            "url": "http://127.0.0.1:8000/api/v2/move/17/"
        },
        {
            "name": "whirlwind",
            "url": "http://127.0.0.1:8000/api/v2/move/18/"
        },
        {
            "name": "fly",
            "url": "http://127.0.0.1:8000/api/v2/move/19/"
        },
        {
            "name": "bind",
            "url": "http://127.0.0.1:8000/api/v2/move/20/"
        }
    ]
}
