{
    "count": 639,
    "next": "http://127.0.0.1:8000/api/v2/move/?limit=50&offset=50",
    "previous": null,
    "results": [
        {
            "name": "pound",
            "url": "http://127.0.0.1:8000/api/v2/move/1/"
        },
        {
            "name": "karate-chop",
            "url": "http://127.0.0.1:8000/api/v2/move/2/"
        },
        {
            "name": "double-slap",
            "url": "http://127.0.0.1:8000/api/v2/move/3/"
        },
        {
            "name": "comet-punch",
            "url": "http://127.0.0.1:8000/api/v2/move/4/"
        },
        {
            "name": "mega-punch",
            "url": "http://127.0.0.1:8000/api/v2/move/5/"
        },
        {
            "name": "pay-day",
            "url": "http://127.0.0.1:8000/api/v2/move/6/"
        },
        {
            "name": "fire-punch",
            "url": "http://127.0.0.1:8000/api/v2/move/7/"
        },
        {
            "name": "ice-punch",
            "url": "http://127.0.0.1:8000/api/v2/move/8/"
        },
        {
            "name": "thunder-punch",
            "url": "http://127.0.0.1:8000/api/v2/move/9/"
        },
        {
            "name": "scratch",
            "url": "http://127.0.0.1:8000/api/v2/move/10/"
        },
        {
            "name": "vice-grip",
            "url": "http://127.0.0.1:8000/api/v2/move/11/"
        },
        {
            "name": "guillotine",
            "url": "http://127.0.0.1:8000/api/v2/move/12/"
        },
        {
            "name": "razor-wind",
            "url": "http://127.0.0.1:8000/api/v2/move/13/"
        },
        {
            "name": "swords-dance",
            "url": "http://127.0.0.1:8000/api/v2/move/14/"
        },
        {
            "name": "cut",
            "url": "http://127.0.0.1:8000/api/v2/move/15/"
        },
        {
            "name": "gust",
            "url": "http://127.0.0.1:8000/api/v2/move/16/"
        },
        {
            "name": "wing-attack",
            "url": "http://127.0.0.1:8000/api/v2/move/17/"
        },
        {
            "name": "whirlwind",
            "url": "http://127.0.0.1:8000/api/v2/move/18/"
        },
        {
            "name": "fly",
            "url": "http://127.0.0.1:8000/api/v2/move/19/"
        },
        {
            "name": "bind",
            "url": "http://127.0.0.1:8000/api/v2/move/20/"
        },
        {
            "name": "slam",
            "url": "http://127.0.0.1:8000/api/v2/move/21/"
        },
        {
            "name": "vine-whip",
            "url": "http://127.0.0.1:8000/api/v2/move/22/"
        },
        {
            "name": "stomp",
            "url": "http://127.0.0.1:8000/api/v2/move/23/"
        },
        {
            "name": "double-kick",
            "url": "http://127.0.0.1:8000/api/v2/move/24/"
        },
        {
            "name": "mega-kick",
            "url": "http://127.0.0.1:8000/api/v2/move/25/"
        },
        {
            "name": "jump-kick",
            "url": "http://127.0.0.1:8000/api/v2/move/26/"
        },
        {
            "name": "rolling-kick",
            "url": "http://127.0.0.1:8000/api/v2/move/27/"
        },
        {
            "name": "sand-attack",
            "url": "http://127.0.0.1:8000/api/v2/move/28/"
        },
        {
            "name": "headbutt",
            "url": "http://127.0.0.1:8000/api/v2/move/29/"
        },
        {
            "name": "horn-attack",
            "url": "http://127.0.0.1:8000/api/v2/move/30/"
        },
        {
            "name": "fury-attack",
            "url": "http://127.0.0.1:8000/api/v2/move/31/"
        },
        {
            "name": "horn-drill",
            "url": "http://127.0.0.1:8000/api/v2/move/32/"
        },
        {
            "name": "tackle",
            "url": "http://127.0.0.1:8000/api/v2/move/33/"
        },
        {
            "name": "body-slam",
            "url": "http://127.0.0.1:8000/api/v2/move/34/"
        },
        {
            "name": "wrap",
            "url": "http://127.0.0.1:8000/api/v2/move/35/"
        },
        {
            "name": "take-down",
            "url": "http://127.0.0.1:8000/api/v2/move/36/"
        },
        {
            "name": "thrash",
            "url": "http://127.0.0.1:8000/api/v2/move/37/"
        },
        {
            "name": "double-edge",
            "url": "http://127.0.0.1:8000/api/v2/move/38/"
        },
        {
            "name": "tail-whip",
            "url": "http://127.0.0.1:8000/api/v2/move/39/"
        },
        {
            "name": "poison-sting",
            "url": "http://127.0.0.1:8000/api/v2/move/40/"
        },
        {
            "name": "twineedle",
            "url": "http://127.0.0.1:8000/api/v2/move/41/"
        },
        {
            "name": "pin-missile",
            "url": "http://127.0.0.1:8000/api/v2/move/42/"
        },
        {
            "name": "leer",
            "url": "http://127.0.0.1:8000/api/v2/move/43/"
        },
        {
            "name": "bite",
            "url": "http://127.0.0.1:8000/api/v2/move/44/"
        },
        {
            "name": "growl",
            "url": "http://127.0.0.1:8000/api/v2/move/45/"
        },
        {
            "name": "roar",
            "url": "http://127.0.0.1:8000/api/v2/move/46/"
        },
        {
            "name": "sing",
            "url": "http://127.0.0.1:8000/api/v2/move/47/"
        },
        {
            "name": "supersonic",
            "url": "http://127.0.0.1:8000/api/v2/move/48/"
        },
        {
            "name": "sonic-boom",
            "url": "http://127.0.0.1:8000/api/v2/move/49/"
        },
        {
            "name": "disable",
            "url": "http://127.0.0.1:8000/api/v2/move/50/"
        }
    ]
}
